<?xml version="1.0" encoding="UTF-8" standalone="no"?>
<svg
   xmlns:dc="http://purl.org/dc/elements/1.1/"
   xmlns:cc="http://creativecommons.org/ns#"
   xmlns:rdf="http://www.w3.org/1999/02/22-rdf-syntax-ns#"
   xmlns:svg="http://www.w3.org/2000/svg"
   xmlns="http://www.w3.org/2000/svg"
   width="41.997105"
   height="33.991123"
   viewBox="0 0 11.111734 8.9934849"
   version="1.1"
   id="svg70">
  <defs
     id="defs64" />
  <metadata
     id="metadata67">
    <rdf:RDF>
      <cc:Work
         rdf:about="">
        <dc:format>image/svg+xml</dc:format>
        <dc:type
           rdf:resource="http://purl.org/dc/dcmitype/StillImage" />
        <dc:title></dc:title>
      </cc:Work>
    </rdf:RDF>
  </metadata>
  <g
     id="layer1"
     transform="translate(-106.56238,-136.87482)">
    <path
       style="color:#000000;font-style:normal;font-variant:normal;font-weight:normal;font-stretch:normal;font-size:medium;line-height:normal;font-family:Sans;-inkscape-font-specification:Sans;text-indent:0;text-align:start;text-decoration:none;text-decoration-line:none;letter-spacing:normal;word-spacing:normal;text-transform:none;writing-mode:lr-tb;direction:ltr;baseline-shift:baseline;text-anchor:start;display:inline;overflow:visible;visibility:visible;fill:#000000;fill-opacity:1;stroke:none;stroke-width:1.05833;marker:none;enable-background:accumulate"
       d="m 107.04219,136.87541 c -0.39324,0.0373 -0.60845,0.47673 -0.39688,0.8103 l 5.02709,7.9375 c 0.20796,0.3268 0.68501,0.3268 0.89297,0 l 5.02709,-7.9375 c 0.22049,-0.35173 -0.0314,-0.8088 -0.44649,-0.8103 h -10.05416 c -0.0165,-7.8e-4 -0.0331,-7.8e-4 -0.0496,0 z m 1.00872,1.05834 h 8.13594 l -4.06797,6.42441 z"
       id="path10" />
  </g>
</svg>
